{
    "material_tf_points": [
        {
            "position": 0.1,
            "material": {
                "albedo": [0.66, 0.56, 0.46],
                "metallicness": 0.0,
                "emissive": 0.0
            }
        },
        {
            "position": 0.25,
            "material": {
                "albedo": [0.65, 0.525, 0.2],
                "metallicness": 0.0,
                "emissive": 0.0
            }
        },
        {
            "position": 0.33,
            "material": {
                "albedo": [0.8, 0.78, 0.67],
                "metallicness": 0.0,
                "emissive": 0.0
            }
        },
        {
            "position": 1.0,
            "material": {
                "albedo": [0.85, 0.85, 0.8],
                "metallicness": 0.0,
                "emissive": 0.0
            }
        }
    ],
    "opacity_tf_points": [
        {
            "position": 0.275,
            "opacity": 0.0
        },
        {
            "position": 0.29,
            "opacity": 1.0
        }
    ]
}